…
#### Importing our data

We'll be using [Project Gutenberg](http://www.gutenberg.org/) as the source of our text data. We can see the list of books available from Project Gutenberg using the `gutenberg_metadata` function from the gutenbergr package:

``` r
gutenberg_metadata
```

    ## # A tibble: 51,997 x 8
    ##    gutenberg_id title author gutenberg_autho… language gutenberg_books…
    ##           <int> <chr> <chr>             <int> <chr>    <chr>           
    ##  1            0 <NA>  <NA>                 NA en       <NA>            
    ##  2            1 The … Jeffe…             1638 en       United States L…
    ##  3            2 "The… Unite…                1 en       American Revolu…
    ##  4            3 John… Kenne…             1666 en       <NA>            
    ##  5            4 "Lin… Linco…                3 en       US Civil War    
    ##  6            5 The … Unite…                1 en       American Revolu…
    ##  7            6 Give… Henry…                4 en       American Revolu…
    ##  8            7 The … <NA>                 NA en       <NA>            
    ##  9            8 Abra… Linco…                3 en       US Civil War    
    ## 10            9 Abra… Linco…                3 en       US Civil War    
    ## # … with 51,987 more rows, and 2 more variables: rights <chr>,
    ## #   has_text <lgl>
…
We should also look at the last lines in the book to make sure we haven't included any appendices or similar sections that might distort our analysis:

``` r
book %>%
  arrange(desc(line))
```

    ## # A tibble: 11,209 x 3
    ##    chapter  line text                                                      
    ##      <int> <int> <chr>                                                     
    ##  1      14 11209 Table of Contents from 279 to 278.                        
    ##  2      14 11208 The transcriber has changed the page number for Chapter X…
    ##  3      13 11207 retained except in obvious cases of typographical error.  
    ##  4      13 11206 Variations in spelling, punctuation and hyphenation have …
    ##  5      13 11205 Text enclosed by plus signs (+Greek+) is a transliteratio…
    ##  6      13 11204 Small capital text has been replaced with all capitals.   
    ##  7      13 11203 Text enclosed by underscores is in italics (_italics_).   
    ##  8      13 11202 Transcriber's note:                                       
    ##  9      13 11201 "       *       *       *       *       *"                
    ## 10      13 11200 "                    THE END."                            
    ## # … with 11,199 more rows
…
We can now use tidytext's `unnest_tokens()` function to tokenise our text, i.e. convert it to a one-word-per-row tibble:

``` r
book_tokenised <- book %>%
  unnest_tokens(word, text)
```

Project Gutenberg uses `_` to denote words which are italicised, so we're likely to have some of these words in our tokenised tibble:

``` r
book_tokenised %>%
  filter(str_detect(word, "_"))
```

    ## # A tibble: 165 x 3
    ##    chapter  line word      
    ##      <int> <int> <chr>     
    ##  1       1   217 _non      
    ##  2       1   217 resistant_
    ##  3       1   226 _non      
    ##  4       1   226 resistant_
    ##  5       1   284 _i        
    ##  6       1   313 _q        
    ##  7       1   314 _a        
    ##  8       1   315 _q        
    ##  9       1   316 _a        
    ## 10       1   317 _q        
    ## # … with 155 more rows
…
